# ACTS Test Suite Generation: Sat Feb 10 16:20:33 CET 2024
#  '*' represents don't care value 
# Degree of interaction coverage: 2
# Number of parameters: 5
# Maximum number of values per parameter: 6
# Number of configurations: 28
# locality;target_identifier_present;command;num_arguments;invalid_combination
local;empty_string;online;0;false
local;empty_string;online;1;true
local;empty_string;online;2;true
local;empty_string;online;3;true
remote;valid;upload;0;true
remote;valid;upload;1;false
remote;empty_string;upload;2;true
remote;valid;upload;3;true
remote;empty_string;exec;0;true
remote;valid;exec;1;false
remote;valid;exec;2;false
remote;valid;exec;3;false
invalid;empty_string;online;1;true
invalid;valid;result;2;true
invalid;empty_string;upload;3;true
invalid;valid;exec;0;true
local;empty_string;invalid;1;true
remote;valid;invalid;2;true
local;empty_string;empty_string;3;true
remote;valid;empty_string;0;true
local;invalid;online;1;true
remote;invalid;upload;2;true
remote;invalid;exec;3;true
remote;invalid;upload;0;true
remote;valid;invalid;0;true
local;empty_string;empty_string;1;true
remote;valid;empty_string;2;true
remote;valid;invalid;3;true
